^F:\VISUALSTUDIOPROJECTS\WINDOWOPENGL\WINDOWOPENGL\PCH.CPP
/c /I"C:\USERS\JEAN\DESKTOP\OPENGL STUFFS\HEADERS\SOIL2" /I"C:\USERS\JEAN\DESKTOP\OPENGL STUFFS\HEADERS" /ZI /JMC /nologo /W3 /WX- /diagnostics:classic /sdl /Od /Oy- /D WIN32 /D _DEBUG /D _CONSOLE /D _UNICODE /D UNICODE /D _CRT_SECURE_NO_WARNINGS /Gm- /EHsc /RTC1 /MDd /GS /fp:precise /permissive- /Zc:wchar_t /Zc:forScope /Zc:inline /Yc"pch.h" /Fp"DEBUG\WINDOWOPENGL.PCH" /Fo"DEBUG\\" /Fd"DEBUG\VC141.PDB" /Gd /TP /analyze- /FC F:\VISUALSTUDIOPROJECTS\WINDOWOPENGL\WINDOWOPENGL\PCH.CPP
^F:\VISUALSTUDIOPROJECTS\WINDOWOPENGL\WINDOWOPENGL\CONTROLS.CPP
/c /I"C:\USERS\JEAN\DESKTOP\OPENGL STUFFS\HEADERS\SOIL2" /I"C:\USERS\JEAN\DESKTOP\OPENGL STUFFS\HEADERS" /ZI /JMC /nologo /W3 /WX- /diagnostics:classic /sdl /Od /Oy- /D WIN32 /D _DEBUG /D _CONSOLE /D _UNICODE /D UNICODE /D _CRT_SECURE_NO_WARNINGS /Gm- /EHsc /RTC1 /MDd /GS /fp:precise /permissive- /Zc:wchar_t /Zc:forScope /Zc:inline /Yu"pch.h" /Fp"DEBUG\WINDOWOPENGL.PCH" /Fo"DEBUG\\" /Fd"DEBUG\VC141.PDB" /Gd /TP /analyze- /FC F:\VISUALSTUDIOPROJECTS\WINDOWOPENGL\WINDOWOPENGL\CONTROLS.CPP
^F:\VISUALSTUDIOPROJECTS\WINDOWOPENGL\WINDOWOPENGL\CUBE.CPP
/c /I"C:\USERS\JEAN\DESKTOP\OPENGL STUFFS\HEADERS\SOIL2" /I"C:\USERS\JEAN\DESKTOP\OPENGL STUFFS\HEADERS" /ZI /JMC /nologo /W3 /WX- /diagnostics:classic /sdl /Od /Oy- /D WIN32 /D _DEBUG /D _CONSOLE /D _UNICODE /D UNICODE /D _CRT_SECURE_NO_WARNINGS /Gm- /EHsc /RTC1 /MDd /GS /fp:precise /permissive- /Zc:wchar_t /Zc:forScope /Zc:inline /Yu"pch.h" /Fp"DEBUG\WINDOWOPENGL.PCH" /Fo"DEBUG\\" /Fd"DEBUG\VC141.PDB" /Gd /TP /analyze- /FC F:\VISUALSTUDIOPROJECTS\WINDOWOPENGL\WINDOWOPENGL\CUBE.CPP
^F:\VISUALSTUDIOPROJECTS\WINDOWOPENGL\WINDOWOPENGL\MESH.CPP
/c /I"C:\USERS\JEAN\DESKTOP\OPENGL STUFFS\HEADERS\SOIL2" /I"C:\USERS\JEAN\DESKTOP\OPENGL STUFFS\HEADERS" /ZI /JMC /nologo /W3 /WX- /diagnostics:classic /sdl /Od /Oy- /D WIN32 /D _DEBUG /D _CONSOLE /D _UNICODE /D UNICODE /D _CRT_SECURE_NO_WARNINGS /Gm- /EHsc /RTC1 /MDd /GS /fp:precise /permissive- /Zc:wchar_t /Zc:forScope /Zc:inline /Yu"pch.h" /Fp"DEBUG\WINDOWOPENGL.PCH" /Fo"DEBUG\\" /Fd"DEBUG\VC141.PDB" /Gd /TP /analyze- /FC F:\VISUALSTUDIOPROJECTS\WINDOWOPENGL\WINDOWOPENGL\MESH.CPP
^F:\VISUALSTUDIOPROJECTS\WINDOWOPENGL\WINDOWOPENGL\OBJLOADER.CPP
/c /I"C:\USERS\JEAN\DESKTOP\OPENGL STUFFS\HEADERS\SOIL2" /I"C:\USERS\JEAN\DESKTOP\OPENGL STUFFS\HEADERS" /ZI /JMC /nologo /W3 /WX- /diagnostics:classic /sdl /Od /Oy- /D WIN32 /D _DEBUG /D _CONSOLE /D _UNICODE /D UNICODE /D _CRT_SECURE_NO_WARNINGS /Gm- /EHsc /RTC1 /MDd /GS /fp:precise /permissive- /Zc:wchar_t /Zc:forScope /Zc:inline /Yu"pch.h" /Fp"DEBUG\WINDOWOPENGL.PCH" /Fo"DEBUG\\" /Fd"DEBUG\VC141.PDB" /Gd /TP /analyze- /FC F:\VISUALSTUDIOPROJECTS\WINDOWOPENGL\WINDOWOPENGL\OBJLOADER.CPP
^F:\VISUALSTUDIOPROJECTS\WINDOWOPENGL\WINDOWOPENGL\SHADER.CPP
/c /I"C:\USERS\JEAN\DESKTOP\OPENGL STUFFS\HEADERS\SOIL2" /I"C:\USERS\JEAN\DESKTOP\OPENGL STUFFS\HEADERS" /ZI /JMC /nologo /W3 /WX- /diagnostics:classic /sdl /Od /Oy- /D WIN32 /D _DEBUG /D _CONSOLE /D _UNICODE /D UNICODE /D _CRT_SECURE_NO_WARNINGS /Gm- /EHsc /RTC1 /MDd /GS /fp:precise /permissive- /Zc:wchar_t /Zc:forScope /Zc:inline /Yu"pch.h" /Fp"DEBUG\WINDOWOPENGL.PCH" /Fo"DEBUG\\" /Fd"DEBUG\VC141.PDB" /Gd /TP /analyze- /FC F:\VISUALSTUDIOPROJECTS\WINDOWOPENGL\WINDOWOPENGL\SHADER.CPP
^F:\VISUALSTUDIOPROJECTS\WINDOWOPENGL\WINDOWOPENGL\TRIANGLE.CPP
/c /I"C:\USERS\JEAN\DESKTOP\OPENGL STUFFS\HEADERS\SOIL2" /I"C:\USERS\JEAN\DESKTOP\OPENGL STUFFS\HEADERS" /ZI /JMC /nologo /W3 /WX- /diagnostics:classic /sdl /Od /Oy- /D WIN32 /D _DEBUG /D _CONSOLE /D _UNICODE /D UNICODE /D _CRT_SECURE_NO_WARNINGS /Gm- /EHsc /RTC1 /MDd /GS /fp:precise /permissive- /Zc:wchar_t /Zc:forScope /Zc:inline /Yu"pch.h" /Fp"DEBUG\WINDOWOPENGL.PCH" /Fo"DEBUG\\" /Fd"DEBUG\VC141.PDB" /Gd /TP /analyze- /FC F:\VISUALSTUDIOPROJECTS\WINDOWOPENGL\WINDOWOPENGL\TRIANGLE.CPP
^F:\VISUALSTUDIOPROJECTS\WINDOWOPENGL\WINDOWOPENGL\WINDOWOPENGL.CPP
/c /I"C:\USERS\JEAN\DESKTOP\OPENGL STUFFS\HEADERS\SOIL2" /I"C:\USERS\JEAN\DESKTOP\OPENGL STUFFS\HEADERS" /ZI /JMC /nologo /W3 /WX- /diagnostics:classic /sdl /Od /Oy- /D WIN32 /D _DEBUG /D _CONSOLE /D _UNICODE /D UNICODE /D _CRT_SECURE_NO_WARNINGS /Gm- /EHsc /RTC1 /MDd /GS /fp:precise /permissive- /Zc:wchar_t /Zc:forScope /Zc:inline /Yu"pch.h" /Fp"DEBUG\WINDOWOPENGL.PCH" /Fo"DEBUG\\" /Fd"DEBUG\VC141.PDB" /Gd /TP /analyze- /FC F:\VISUALSTUDIOPROJECTS\WINDOWOPENGL\WINDOWOPENGL\WINDOWOPENGL.CPP
