^F:\VISUALSTUDIOPROJECTS\WINDOWOPENGL\WINDOWOPENGL\PCH.CPP
F:\VISUALSTUDIOPROJECTS\WINDOWOPENGL\WINDOWOPENGL\DEBUG\WINDOWOPENGL.PCH
F:\VISUALSTUDIOPROJECTS\WINDOWOPENGL\WINDOWOPENGL\DEBUG\VC141.PDB
F:\VISUALSTUDIOPROJECTS\WINDOWOPENGL\WINDOWOPENGL\DEBUG\VC141.IDB
F:\VISUALSTUDIOPROJECTS\WINDOWOPENGL\WINDOWOPENGL\DEBUG\PCH.OBJ
^F:\VISUALSTUDIOPROJECTS\WINDOWOPENGL\WINDOWOPENGL\CONTROLS.CPP|F:\VISUALSTUDIOPROJECTS\WINDOWOPENGL\WINDOWOPENGL\CUBE.CPP|F:\VISUALSTUDIOPROJECTS\WINDOWOPENGL\WINDOWOPENGL\MESH.CPP|F:\VISUALSTUDIOPROJECTS\WINDOWOPENGL\WINDOWOPENGL\OBJLOADER.CPP|F:\VISUALSTUDIOPROJECTS\WINDOWOPENGL\WINDOWOPENGL\SHADER.CPP|F:\VISUALSTUDIOPROJECTS\WINDOWOPENGL\WINDOWOPENGL\TRIANGLE.CPP|F:\VISUALSTUDIOPROJECTS\WINDOWOPENGL\WINDOWOPENGL\WINDOWOPENGL.CPP
F:\VISUALSTUDIOPROJECTS\WINDOWOPENGL\WINDOWOPENGL\DEBUG\VC141.PDB
F:\VISUALSTUDIOPROJECTS\WINDOWOPENGL\WINDOWOPENGL\DEBUG\VC141.IDB
F:\VISUALSTUDIOPROJECTS\WINDOWOPENGL\WINDOWOPENGL\DEBUG\WINDOWOPENGL.OBJ
F:\VISUALSTUDIOPROJECTS\WINDOWOPENGL\WINDOWOPENGL\DEBUG\TRIANGLE.OBJ
F:\VISUALSTUDIOPROJECTS\WINDOWOPENGL\WINDOWOPENGL\DEBUG\SHADER.OBJ
F:\VISUALSTUDIOPROJECTS\WINDOWOPENGL\WINDOWOPENGL\DEBUG\OBJLOADER.OBJ
F:\VISUALSTUDIOPROJECTS\WINDOWOPENGL\WINDOWOPENGL\DEBUG\MESH.OBJ
F:\VISUALSTUDIOPROJECTS\WINDOWOPENGL\WINDOWOPENGL\DEBUG\CUBE.OBJ
F:\VISUALSTUDIOPROJECTS\WINDOWOPENGL\WINDOWOPENGL\DEBUG\CONTROLS.OBJ
^F:\VISUALSTUDIOPROJECTS\WINDOWOPENGL\WINDOWOPENGL\CONTROLS.CPP
F:\VISUALSTUDIOPROJECTS\WINDOWOPENGL\WINDOWOPENGL\DEBUG\VC141.PDB
^F:\VISUALSTUDIOPROJECTS\WINDOWOPENGL\WINDOWOPENGL\CUBE.CPP
F:\VISUALSTUDIOPROJECTS\WINDOWOPENGL\WINDOWOPENGL\DEBUG\VC141.PDB
^F:\VISUALSTUDIOPROJECTS\WINDOWOPENGL\WINDOWOPENGL\MESH.CPP
F:\VISUALSTUDIOPROJECTS\WINDOWOPENGL\WINDOWOPENGL\DEBUG\VC141.PDB
^F:\VISUALSTUDIOPROJECTS\WINDOWOPENGL\WINDOWOPENGL\OBJLOADER.CPP
F:\VISUALSTUDIOPROJECTS\WINDOWOPENGL\WINDOWOPENGL\DEBUG\VC141.PDB
^F:\VISUALSTUDIOPROJECTS\WINDOWOPENGL\WINDOWOPENGL\SHADER.CPP
F:\VISUALSTUDIOPROJECTS\WINDOWOPENGL\WINDOWOPENGL\DEBUG\VC141.PDB
^F:\VISUALSTUDIOPROJECTS\WINDOWOPENGL\WINDOWOPENGL\TRIANGLE.CPP
F:\VISUALSTUDIOPROJECTS\WINDOWOPENGL\WINDOWOPENGL\DEBUG\VC141.PDB
^F:\VISUALSTUDIOPROJECTS\WINDOWOPENGL\WINDOWOPENGL\WINDOWOPENGL.CPP
F:\VISUALSTUDIOPROJECTS\WINDOWOPENGL\WINDOWOPENGL\DEBUG\VC141.PDB
